2-stage-pipeline-processor/temp/microprocessor.vcd
$date
	Mon Mar 18 16:02:18 2024
$end
$version
	Icarus Verilog
$end
$timescale
	1ps
$end
$scope module microprocessor_tb $end
$var reg 1 ! clk $end
$var reg 32 " instruction [31:0] $end
$var reg 1 # rst $end
$scope module u_microprocessor0 $end
$var wire 1 ! clk $end
$var wire 32 $ instruction [31:0] $end
$var wire 1 # rst $end
$var wire 32 % store_data [31:0] $end
$var wire 32 & pc_address [31:0] $end
$var wire 4 ' mask [3:0] $end
$var wire 1 ( load_signal $end
$var wire 32 ) load_data_out [31:0] $end
$var wire 1 * instruction_mem_we_re $end
$var wire 1 + instruction_mem_request $end
$var wire 32 , instruction_data [31:0] $end
$var wire 1 - instruc_mem_valid $end
$var wire 4 . instruc_mask_singal [3:0] $end
$var wire 1 / data_mem_we_re $end
$var wire 1 0 data_mem_valid $end
$var wire 1 1 data_mem_request $end
$var wire 32 2 alu_out_address [31:0] $end
$scope module u_core $end
$var wire 32 3 alu_out_address [31:0] $end
$var wire 1 ! clk $end
$var wire 1 ( load_signal $end
$var wire 4 4 mask_singal [3:0] $end
$var wire 1 5 reg_write_decode $end
$var wire 1 # rst $end
$var wire 32 6 wrap_load_out [31:0] $end
$var wire 1 7 store_execute $end
$var wire 1 8 store_decode $end
$var wire 32 9 store_data_out [31:0] $end
$var wire 1 : reg_write_execute $end
$var wire 32 ; rd_wb_data [31:0] $end
$var wire 32 < pre_pc_addr_fetch [31:0] $end
$var wire 32 = pre_pc_addr_execute [31:0] $end
$var wire 32 > pre_pc_addr_decode [31:0] $end
$var wire 32 ? pc_address [31:0] $end
$var wire 32 @ opb_mux_out_execute [31:0] $end
$var wire 32 A opb_mux_out_decode [31:0] $end
$var wire 32 B opa_mux_out_execute [31:0] $end
$var wire 32 C opa_mux_out_decode [31:0] $end
$var wire 32 D op_b_execute [31:0] $end
$var wire 32 E op_b_decode [31:0] $end
$var wire 1 F next_sel_execute $end
$var wire 1 G next_sel_decode $end
$var wire 32 H next_sel_address_execute [31:0] $end
$var wire 2 I mem_to_reg_execute [1:0] $end
$var wire 2 J mem_to_reg_decode [1:0] $end
$var wire 4 K mask [3:0] $end
$var wire 1 L load_execute $end
$var wire 1 M load_decode $end
$var wire 32 N load_data_in [31:0] $end
$var wire 1 O jalr_decode $end
$var wire 1 * instruction_mem_we_re $end
$var wire 1 + instruction_mem_request $end
$var wire 32 P instruction_fetch [31:0] $end
$var wire 32 Q instruction_execute [31:0] $end
$var wire 32 R instruction_decode [31:0] $end
$var wire 32 S instruction [31:0] $end
$var wire 1 - instruc_mem_valid $end
$var wire 4 T instruc_mask_singal [3:0] $end
$var wire 1 / data_mem_we_re $end
$var wire 1 0 data_mem_valid $end
$var wire 1 1 data_mem_request $end
$var wire 1 U branch_result_execute $end
$var wire 1 V branch_result_decode $end
$var wire 32 W alu_res_out_execute [31:0] $end
$var wire 4 X alu_control_execute [3:0] $end
$var wire 4 Y alu_control_decode [3:0] $end
$scope module u_decodepipeline $end
$var wire 4 Z alu_control [3:0] $end
$var wire 1 U branch_result $end
$var wire 1 ! clk $end
$var wire 32 [ instruction_out [31:0] $end
$var wire 1 L load $end
$var wire 2 \ mem_to_reg [1:0] $end
$var wire 1 F next_sel $end
$var wire 32 ] opa_mux_out [31:0] $end
$var wire 32 ^ opb_data_out [31:0] $end
$var wire 32 _ opb_mux_out [31:0] $end
$var wire 32 ` pre_address_out [31:0] $end
$var wire 1 5 reg_write_in $end
$var wire 1 : reg_write_out $end
$var wire 5 a rs1_in [4:0] $end
$var wire 5 b rs1_out [4:0] $end
$var wire 5 c rs2_in [4:0] $end
$var wire 5 d rs2_out [4:0] $end
$var wire 1 7 store $end
$var wire 1 8 store_in $end
$var wire 32 e pre_address_in [31:0] $end
$var wire 32 f opb_mux_in [31:0] $end
$var wire 32 g opb_data_in [31:0] $end
$var wire 32 h opa_mux_in [31:0] $end
$var wire 1 G next_sel_in $end
$var wire 2 i mem_to_reg_in [1:0] $end
$var wire 1 M load_in $end
$var wire 32 j instruction_in [31:0] $end
$var wire 1 V branch_result_in $end
$var wire 4 k alu_control_in [3:0] $end
$var reg 4 l alu_con [3:0] $end
$var reg 1 m branch_res $end
$var reg 32 n instruction [31:0] $end
$var reg 1 o l $end
$var reg 2 p mem_reg [1:0] $end
$var reg 1 q nextsel $end
$var reg 32 r opa_mux [31:0] $end
$var reg 32 s opb_data [31:0] $end
$var reg 32 t opb_mux [31:0] $end
$var reg 32 u pre_address [31:0] $end
$var reg 1 v reg_write $end
$var reg 1 w s $end
$upscope $end
$scope module u_decodestage $end
$var wire 1 ! clk $end
$var wire 32 x instruction_rd [31:0] $end
$var wire 32 y opb_data [31:0] $end
$var wire 1 # rst $end
$var wire 1 0 valid $end
$var wire 32 z uj_immo [31:0] $end
$var wire 32 { u_immo [31:0] $end
$var wire 1 8 store $end
$var wire 32 | sb_immo [31:0] $end
$var wire 32 } s_immo [31:0] $end
$var wire 1 ~ reg_write $end
$var wire 32 !" rd_wb_data [31:0] $end
$var wire 32 "" pc_address [31:0] $end
$var wire 1 #" operand_b $end
$var wire 1 $" operand_a $end
$var wire 32 %" opb_mux_out [31:0] $end
$var wire 32 &" opa_mux_out [31:0] $end
$var wire 32 '" op_b [31:0] $end
$var wire 32 (" op_a [31:0] $end
$var wire 1 G next_sel $end
$var wire 2 )" mem_to_reg [1:0] $end
$var wire 1 M load $end
$var wire 1 O jalr $end
$var wire 32 *" instruction [31:0] $end
$var wire 3 +" imm_sel [2:0] $end
$var wire 32 ," imm_mux_out [31:0] $end
$var wire 32 -" i_immo [31:0] $end
$var wire 1 V branch_result $end
$var wire 1 ." branch $end
$var wire 4 /" alu_control [3:0] $end
$scope module u_branch0 $end
$var wire 3 0" fun3 [2:0] $end
$var wire 32 1" op_b [31:0] $end
$var wire 32 2" op_a [31:0] $end
$var wire 1 ." en $end
$var reg 1 V result $end
$upscope $end
$scope module u_cu0 $end
$var wire 3 3" fun3 [2:0] $end
$var wire 1 4" fun7 $end
$var wire 7 5" opcode [6:0] $end
$var wire 1 0 valid $end
$var wire 1 6" store $end
$var wire 1 ~ reg_write $end
$var wire 1 7" r_type $end
$var wire 1 #" operand_b $end
$var wire 1 $" operand_a $end
$var wire 1 G next_sel $end
$var wire 2 8" mem_to_reg [1:0] $end
$var wire 1 9" mem_en $end
$var wire 1 :" lui $end
$var wire 1 ;" load $end
$var wire 1 O jalr_out $end
$var wire 1 <" jalr $end
$var wire 1 =" jal $end
$var wire 3 >" imm_sel [2:0] $end
$var wire 1 ?" i_type $end
$var wire 1 @" branch $end
$var wire 1 A" auipc $end
$var wire 4 B" alu_control [3:0] $end
$var wire 1 8 Store $end
$var wire 1 M Load $end
$var wire 1 ." Branch $end
$scope module u_controldec0 $end
$var wire 3 C" fun3 [2:0] $end
$var wire 1 4" fun7 $end
$var wire 1 6" store $end
$var wire 1 7" r_type $end
$var wire 1 :" lui $end
$var wire 1 ;" load $end
$var wire 1 <" jalr $end
$var wire 1 =" jal $end
$var wire 1 ?" i_type $end
$var wire 1 @" branch $end
$var wire 1 A" auipc $end
$var reg 1 ." Branch $end
$var reg 1 M Load $end
$var reg 1 8 Store $end
$var reg 4 D" alu_control [3:0] $end
$var reg 3 E" imm_sel [2:0] $end
$var reg 1 O jalr_out $end
$var reg 1 9" mem_en $end
$var reg 2 F" mem_to_reg [1:0] $end
$var reg 1 G next_sel $end
$var reg 1 $" operand_a $end
$var reg 1 #" operand_b $end
$var reg 1 ~ reg_write $end
$upscope $end
$scope module u_typedec0 $end
$var wire 7 G" opcode [6:0] $end
$var wire 1 0 valid $end
$var reg 1 A" auipc $end
$var reg 1 @" branch $end
$var reg 1 ?" i_type $end
$var reg 1 =" jal $end
$var reg 1 <" jalr $end
$var reg 1 ;" load $end
$var reg 1 :" lui $end
$var reg 1 7" r_type $end
$var reg 1 6" store $end
$upscope $end
$upscope $end
$scope module u_imm_gen0 $end
$var wire 32 H" instr [31:0] $end
$var reg 32 I" i_imme [31:0] $end
$var reg 32 J" s_imme [31:0] $end
$var reg 32 K" sb_imme [31:0] $end
$var reg 32 L" u_imme [31:0] $end
$var reg 32 M" uj_imme [31:0] $end
$upscope $end
$scope module u_mux0 $end
$var wire 32 N" a [31:0] $end
$var wire 32 O" b [31:0] $end
$var wire 32 P" c [31:0] $end
$var wire 32 Q" d [31:0] $end
$var wire 32 R" e [31:0] $end
$var wire 32 S" f [31:0] $end
$var wire 32 T" g [31:0] $end
$var wire 32 U" h [31:0] $end
$var wire 3 V" sel [2:0] $end
$var reg 32 W" out [31:0] $end
$upscope $end
$scope module u_mux1 $end
$var wire 1 $" sel $end
$var wire 32 X" out [31:0] $end
$var wire 32 Y" b [31:0] $end
$var wire 32 Z" a [31:0] $end
$upscope $end
$scope module u_mux2 $end
$var wire 32 [" b [31:0] $end
$var wire 1 #" sel $end
$var wire 32 \" out [31:0] $end
$var wire 32 ]" a [31:0] $end
$upscope $end
$scope module u_regfile0 $end
$var wire 1 ! clk $end
$var wire 1 ~ en $end
$var wire 5 ^" rd [4:0] $end
$var wire 5 _" rs1 [4:0] $end
$var wire 5 `" rs2 [4:0] $end
$var wire 1 # rst $end
$var wire 32 a" op_b [31:0] $end
$var wire 32 b" op_a [31:0] $end
$var wire 32 c" data [31:0] $end
$var integer 32 d" i [31:0] $end
$upscope $end
$upscope $end
$scope module u_executestage $end
$var wire 32 e" a_i [31:0] $end
$var wire 4 f" alu_control [3:0] $end
$var wire 32 g" b_i [31:0] $end
$var wire 32 h" pc_address [31:0] $end
$var wire 32 i" next_sel_address [31:0] $end
$var wire 32 j" alu_res_out [31:0] $end
$scope module u_adder0 $end
$var wire 32 k" a [31:0] $end
$var reg 32 l" adder_out [31:0] $end
$upscope $end
$scope module u_alu0 $end
$var wire 32 m" a_i [31:0] $end
$var wire 32 n" b_i [31:0] $end
$var wire 4 o" op_i [3:0] $end
$var reg 32 p" res_o [31:0] $end
$upscope $end
$upscope $end
$scope module u_fetchpipeline $end
$var wire 1 V branch_result $end
$var wire 1 ! clk $end
$var wire 32 q" instruction [31:0] $end
$var wire 1 O jalr $end
$var wire 1 M load $end
$var wire 1 G next_select $end
$var wire 32 r" pre_address_out [31:0] $end
$var wire 32 s" pre_address_pc [31:0] $end
$var wire 32 t" instruction_fetch [31:0] $end
$var reg 1 u" flush_pipeline $end
$var reg 1 v" flush_pipeline2 $end
$var reg 32 w" instruc [31:0] $end
$var reg 32 x" pre_address [31:0] $end
$upscope $end
$scope module u_fetchstage $end
$var wire 32 y" address_in [31:0] $end
$var wire 1 U branch_reselt $end
$var wire 1 ! clk $end
$var wire 1 O jalr $end
$var wire 1 M load $end
$var wire 32 z" next_address [31:0] $end
$var wire 1 F next_sel $end
$var wire 1 # rst $end
$var wire 1 0 valid $end
$var wire 32 {" pre_address_pc [31:0] $end
$var wire 32 |" instruction_fetch [31:0] $end
$var wire 32 }" address_out [31:0] $end
$var reg 32 ~" instruction [31:0] $end
$var reg 4 !# mask [3:0] $end
$var reg 1 + request $end
$var reg 1 * we_re $end
$scope module u_pc0 $end
$var wire 32 "# address_in [31:0] $end
$var wire 1 U branch_reselt $end
$var wire 1 ! clk $end
$var wire 1 O jalr $end
$var wire 1 M load $end
$var wire 32 ## next_address [31:0] $end
$var wire 1 F next_sel $end
$var wire 32 $# pre_address_pc [31:0] $end
$var wire 1 # rst $end
$var wire 1 0 dmem_valid $end
$var reg 32 %# address_out [31:0] $end
$var reg 32 &# pre_address [31:0] $end
$upscope $end
$upscope $end
$scope module u_memorystage $end
$var wire 32 '# alu_out_address [31:0] $end
$var wire 32 (# instruction [31:0] $end
$var wire 1 L load $end
$var wire 32 )# op_b [31:0] $end
$var wire 1 # rst $end
$var wire 1 7 store $end
$var wire 32 *# wrap_load_out [31:0] $end
$var wire 32 +# wrap_load_in [31:0] $end
$var wire 1 - valid $end
$var wire 32 ,# store_data_out [31:0] $end
$var wire 4 -# mask [3:0] $end
$var reg 1 1 request $end
$var reg 1 / we_re $end
$scope module u_wrap_mem0 $end
$var wire 1 L Load $end
$var wire 2 .# byteadd [1:0] $end
$var wire 32 /# data_i [31:0] $end
$var wire 3 0# fun3 [2:0] $end
$var wire 1 7 mem_en $end
$var wire 32 1# wrap_load_in [31:0] $end
$var reg 32 2# data_o [31:0] $end
$var reg 4 3# masking [3:0] $end
$var reg 32 4# wrap_load_out [31:0] $end
$upscope $end
$upscope $end
$scope module u_wbstage $end
$var wire 32 5# alu_out [31:0] $end
$var wire 32 6# data_mem_out [31:0] $end
$var wire 2 7# mem_to_reg [1:0] $end
$var wire 32 8# next_sel_address [31:0] $end
$var wire 32 9# rd_sel_mux_out [31:0] $end
$scope module u_mux2 $end
$var wire 32 :# a [31:0] $end
$var wire 32 ;# b [31:0] $end
$var wire 32 <# c [31:0] $end
$var wire 32 =# d [31:0] $end
$var wire 2 ># sel [1:0] $end
$var reg 32 ?# out [31:0] $end
$upscope $end
$upscope $end
$upscope $end
$scope module u_data_memory $end
$var wire 8 @# address [7:0] $end
$var wire 1 ! clk $end
$var wire 32 A# data_in [31:0] $end
$var wire 1 ( load $end
$var wire 4 B# mask [3:0] $end
$var wire 1 1 request $end
$var wire 1 # rst $end
$var wire 1 / we_re $end
$var wire 32 C# data_out [31:0] $end
$var reg 1 0 valid $end
$scope module u_memory $end
$var wire 8 D# address [7:0] $end
$var wire 1 ! clk $end
$var wire 32 E# data_in [31:0] $end
$var wire 4 F# mask [3:0] $end
$var wire 1 1 request $end
$var wire 1 / we_re $end
$var reg 32 G# data_out [31:0] $end
$upscope $end
$upscope $end
$scope module u_instruction_memory $end
$var wire 8 H# address [7:0] $end
$var wire 1 ! clk $end
$var wire 32 I# data_in [31:0] $end
$var wire 4 J# mask [3:0] $end
$var wire 1 + request $end
$var wire 1 # rst $end
$var wire 1 * we_re $end
$var wire 32 K# data_out [31:0] $end
$var reg 1 - valid $end
$scope module u_memory $end
$var wire 8 L# address [7:0] $end
$var wire 1 ! clk $end
$var wire 32 M# data_in [31:0] $end
$var wire 4 N# mask [3:0] $end
$var wire 1 + request $end
$var wire 1 * we_re $end
$var reg 32 O# data_out [31:0] $end
$upscope $end
$upscope $end
$upscope $end
$upscope $end
$enddefinitions $end
#0
$dumpvars
bx O#
bx N#
bx M#
bx L#
bx K#
bx J#
bx I#
bx H#
bx G#
bx F#
bx E#
bx D#
bx C#
bx B#
bx A#
bx @#
bx ?#
bx >#
bz =#
bx <#
bx ;#
bx :#
bx 9#
bx 8#
bx 7#
bx 6#
bx 5#
bx 4#
bx 3#
bx 2#
bx 1#
bx 0#
bx /#
bx .#
bx -#
bx ,#
bx +#
bx *#
bx )#
bx (#
bx '#
bx &#
bx %#
bx $#
bx ##
b0 "#
bx !#
bx ~"
bx }"
bx |"
bx {"
bx z"
b0 y"
bx x"
bx w"
xv"
xu"
bx t"
bx s"
bx r"
bx q"
bx p"
bx o"
bx n"
bx m"
bx l"
bx k"
bx j"
bx i"
bx h"
bx g"
bx f"
bx e"
bx d"
bx c"
bx b"
bx a"
bx `"
bx _"
bx ^"
bx ]"
bx \"
bx ["
bx Z"
bx Y"
bx X"
bx W"
bx V"
bz U"
bz T"
bz S"
bx R"
bx Q"
bx P"
bx O"
bx N"
bx M"
bx L"
bx K"
bx J"
bx I"
bx H"
bx G"
bx F"
bx E"
bx D"
bx C"
bx B"
xA"
x@"
x?"
bx >"
x="
x<"
x;"
x:"
x9"
bx 8"
x7"
x6"
bx 5"
x4"
bx 3"
bx 2"
bx 1"
bx 0"
bx /"
x."
bx -"
bx ,"
bx +"
bx *"
bx )"
bx ("
bx '"
bx &"
bx %"
x$"
x#"
bx ""
bx !"
x~
bx }
bx |
bx {
bx z
bx y
bx x
xw
xv
bx u
bx t
bx s
bx r
xq
bx p
xo
bx n
xm
bx l
bx k
bx j
bx i
bx h
bx g
bx f
bx e
bz d
bz c
bz b
bz a
bx `
bx _
bx ^
bx ]
bx \
bx [
bx Z
bx Y
bx X
bx W
xV
xU
bx T
bx S
bx R
bx Q
bx P
xO
bx N
xM
xL
bx K
bx J
bx I
bx H
xG
xF
bx E
bx D
bx C
bx B
bx A
bx @
bx ?
bx >
bx =
bx <
bx ;
x:
bx 9
x8
x7
bx 6
z5
bx 4
bx 3
bx 2
x1
x0
x/
bx .
x-
bx ,
x+
x*
bx )
x(
bx '
bx &
bx %
bx $
1#
bx "
0!
$end
#5000
z:
zv
1!
#10000
0V
09"
0O
0G
0."
08
0(
0M
0#"
0$"
0~
0:"
0<"
0="
0A"
0@"
0;"
06"
0?"
07"
1+
0*
b1111 .
b1111 T
b1111 !#
b1111 J#
b1111 N#
b0 H#
b0 L#
0/
01
00
b0 &
b0 ?
b0 }"
b0 %#
0-
b100000 d"
0!
0#
#15000
b1000000000010100010011 P
b1000000000010100010011 t"
b1000000000010100010011 ~"
0U
0m
0F
0q
07
0w
0L
0o
b1000000000010100010011 ,
b1000000000010100010011 S
b1000000000010100010011 |"
b1000000000010100010011 K#
b1000000000010100010011 O#
b100000 d"
1!
#20000
0!
1#
#25000
b10 A
b10 f
b10 %"
b10 \"
b0 C
b0 h
b0 &"
b0 X"
b10 ,"
b10 W"
b10 ["
b0 E
b0 g
b0 y
b0 '"
b0 1"
b0 ]"
b0 a"
b0 ("
b0 2"
b0 Z"
b0 b"
b0 Y
b0 k
b0 /"
b0 B"
b0 D"
b0 J
b0 i
b0 )"
b0 8"
b0 F"
b0 +"
b0 >"
b0 E"
b0 V"
1#"
1~
1?"
b0 0"
b10 `"
b0 _"
04"
b0 3"
b0 C"
b10011 5"
b10011 G"
b1000000000000000000000 {
b1000000000000000000000 L"
b1000000000000000000000 R"
b10 z
b10 M"
b10 Q"
b1010 |
b1010 K"
b1010 P"
b1010 }
b1010 J"
b1010 O"
b10 -"
b10 I"
b10 N"
b1 H#
b1 L#
b1000000000010100010011 R
b1000000000010100010011 j
b1000000000010100010011 *"
b1000000000010100010011 H"
b1000000000010100010011 q"
b1000000000010100010011 w"
b100 &
b100 ?
b100 }"
b100 %#
b0 <
b0 s"
b0 {"
b0 $#
b0 &#
1-
1!
#30000
0!
#35000
b10 .#
b10 ;
b10 !"
b10 c"
b10 9#
b10 ?#
b0 @#
b0 D#
b1010 ^"
b0 0#
b10 2
b10 3
b10 W
b10 j"
b10 p"
b10 z"
b10 ##
b10 '#
b10 5#
b10 :#
b100000000000100010011 P
b100000000000100010011 t"
b100000000000100010011 ~"
b10 H#
b10 L#
b1000000000010100010011 Q
b1000000000010100010011 [
b1000000000010100010011 n
b1000000000010100010011 x
b1000000000010100010011 (#
b0 D
b0 ^
b0 )#
b0 /#
b0 s
b10 @
b10 _
b10 g"
b10 n"
b10 t
b0 B
b0 ]
b0 e"
b0 m"
b0 r
b0 X
b0 Z
b0 f"
b0 o"
b0 l
b0 I
b0 \
b0 7#
b0 >#
b0 p
b0 >
b0 e
b0 ""
b0 Y"
b0 r"
b0 x"
b100000000000100010011 ,
b100000000000100010011 S
b100000000000100010011 |"
b100000000000100010011 K#
b100000000000100010011 O#
b1000 &
b1000 ?
b1000 }"
b1000 %#
b100 <
b100 s"
b100 {"
b100 $#
b100 &#
1!
#40000
0!
#45000
b1 A
b1 f
b1 %"
b1 \"
b1 ,"
b1 W"
b1 ["
b1010000000000000011101111 P
b1010000000000000011101111 t"
b1010000000000000011101111 ~"
b1 `"
b100000000000000000000 {
b100000000000000000000 L"
b100000000000000000000 R"
b100000000000 z
b100000000000 M"
b100000000000 Q"
b10 |
b10 K"
b10 P"
b10 }
b10 J"
b10 O"
b1 -"
b1 I"
b1 N"
b100 H
b100 i"
b100 l"
b100 8#
b100 <#
b11 H#
b11 L#
b1010000000000000011101111 ,
b1010000000000000011101111 S
b1010000000000000011101111 |"
b1010000000000000011101111 K#
b1010000000000000011101111 O#
b100000000000100010011 R
b100000000000100010011 j
b100000000000100010011 *"
b100000000000100010011 H"
b100000000000100010011 q"
b100000000000100010011 w"
b100 >
b100 e
b100 ""
b100 Y"
b100 r"
b100 x"
b0 =
b0 `
b0 h"
b0 k"
b0 u
b1100 &
b1100 ?
b1100 }"
b1100 %#
b1000 <
b1000 s"
b1000 {"
b1000 $#
b1000 &#
1!
#50000
0!
#55000
b1000 C
b1000 h
b1000 &"
b1000 X"
b11 +"
b11 >"
b11 E"
b11 V"
b10 J
b10 i
b10 )"
b10 8"
b10 F"
1G
1$"
b10100 A
b10100 f
b10100 %"
b10100 \"
b1 .#
b1 ;
b1 !"
b1 c"
b1 9#
b1 ?#
1="
0?"
b10100 ,"
b10100 W"
b10100 ["
b10 ^"
b1000 H
b1000 i"
b1000 l"
b1000 8#
b1000 <#
b1 2
b1 3
b1 W
b1 j"
b1 p"
b1 z"
b1 ##
b1 '#
b1 5#
b1 :#
b10100 `"
b1101111 5"
b1101111 G"
b1010000000000000000000000 {
b1010000000000000000000000 L"
b1010000000000000000000000 R"
b10100 z
b10100 M"
b10100 Q"
b100000000000 |
b100000000000 K"
b100000000000 P"
b1 }
b1 J"
b1 O"
b10100 -"
b10100 I"
b10100 N"
b100000010000000110010011 P
b100000010000000110010011 t"
b100000010000000110010011 ~"
b100 H#
b100 L#
b100000000000100010011 Q
b100000000000100010011 [
b100000000000100010011 n
b100000000000100010011 x
b100000000000100010011 (#
b100 =
b100 `
b100 h"
b100 k"
b100 u
b1 @
b1 _
b1 g"
b1 n"
b1 t
b1010000000000000011101111 R
b1010000000000000011101111 j
b1010000000000000011101111 *"
b1010000000000000011101111 H"
b1010000000000000011101111 q"
b1010000000000000011101111 w"
b1000 >
b1000 e
b1000 ""
b1000 Y"
b1000 r"
b1000 x"
b100000010000000110010011 ,
b100000010000000110010011 S
b100000010000000110010011 |"
b100000010000000110010011 K#
b100000010000000110010011 O#
b10000 &
b10000 ?
b10000 }"
b10000 %#
b1100 <
b1100 s"
b1100 {"
b1100 $#
b1100 &#
1!
#60000
0!
#65000
0G
0#"
0$"
0~
b0 A
b0 f
b0 %"
b0 \"
0="
b0 ,"
b0 W"
b0 ["
b0 .#
b111 @#
b111 D#
b1001010110111 P
b1001010110111 t"
b1001010110111 ~"
b0 `"
b0 5"
b0 G"
b0 {
b0 L"
b0 R"
b0 z
b0 M"
b0 Q"
b0 |
b0 K"
b0 P"
b0 }
b0 J"
b0 O"
b0 -"
b0 I"
b0 N"
b0 C
b0 h
b0 &"
b0 X"
b1 ^"
b1100 H
b1100 i"
b1100 l"
b1100 8#
b1100 <#
b11100 2
b11100 3
b11100 W
b11100 j"
b11100 p"
b11100 z"
b11100 ##
b11100 '#
b11100 5#
b11100 :#
b1100 ;
b1100 !"
b1100 c"
b1100 9#
b1100 ?#
b101 H#
b101 L#
b1001010110111 ,
b1001010110111 S
b1001010110111 |"
b1001010110111 K#
b1001010110111 O#
1u"
b0 R
b0 j
b0 *"
b0 H"
b0 q"
b0 w"
b0 >
b0 e
b0 ""
b0 Y"
b0 r"
b0 x"
b1010000000000000011101111 Q
b1010000000000000011101111 [
b1010000000000000011101111 n
b1010000000000000011101111 x
b1010000000000000011101111 (#
b1000 =
b1000 `
b1000 h"
b1000 k"
b1000 u
b10100 @
b10100 _
b10100 g"
b10100 n"
b10100 t
b1000 B
b1000 ]
b1000 e"
b1000 m"
b1000 r
b10 I
b10 \
b10 7#
b10 >#
b10 p
1F
1q
b10100 &
b10100 ?
b10100 }"
b10100 %#
b10000 <
b10000 s"
b10000 {"
b10000 $#
b10000 &#
1!
#70000
0!
#75000
b100 ;
b100 !"
b100 c"
b100 9#
b100 ?#
b0 @#
b0 D#
b0 ^"
b100 H
b100 i"
b100 l"
b100 8#
b100 <#
b0 2
b0 3
b0 W
b0 j"
b0 p"
b0 z"
b0 ##
b0 '#
b0 5#
b0 :#
b11000000000000001100010111 P
b11000000000000001100010111 t"
b11000000000000001100010111 ~"
b111 H#
b111 L#
b0 Q
b0 [
b0 n
b0 x
b0 (#
b0 =
b0 `
b0 h"
b0 k"
b0 u
b0 @
b0 _
b0 g"
b0 n"
b0 t
b0 B
b0 ]
b0 e"
b0 m"
b0 r
0F
0q
1v"
0u"
b11000000000000001100010111 ,
b11000000000000001100010111 S
b11000000000000001100010111 |"
b11000000000000001100010111 K#
b11000000000000001100010111 O#
b11100 &
b11100 ?
b11100 }"
b11100 %#
1!
#80000
0!
#85000
b1000010000001000110011 P
b1000010000001000110011 t"
b1000010000001000110011 ~"
b1000 H#
b1000 L#
b1000010000001000110011 ,
b1000010000001000110011 S
b1000010000001000110011 |"
b1000010000001000110011 K#
b1000010000001000110011 O#
0v"
b100000 &
b100000 ?
b100000 }"
b100000 %#
b11100 <
b11100 s"
b11100 {"
b11100 $#
b11100 &#
1!
#90000
0!
#95000
b1 A
b1 f
b1 %"
b1 \"
b1 C
b1 h
b1 &"
b1 X"
b0 J
b0 i
b0 )"
b0 8"
b0 F"
1~
b1 E
b1 g
b1 y
b1 '"
b1 1"
b1 ]"
b1 a"
b1 ("
b1 2"
b1 Z"
b1 b"
17"
b10000000000000010 ,"
b10000000000000010 W"
b10000000000000010 ["
b10 `"
b10 _"
b110011 5"
b110011 G"
b1000010000000000000000 {
b1000010000000000000000 L"
b1000010000000000000000 R"
b10000000000000010 z
b10000000000000010 M"
b10000000000000010 Q"
b100 |
b100 K"
b100 P"
b100 }
b100 J"
b100 O"
b10 -"
b10 I"
b10 N"
b110011 P
b110011 t"
b110011 ~"
b1001 H#
b1001 L#
b1000010000001000110011 R
b1000010000001000110011 j
b1000010000001000110011 *"
b1000010000001000110011 H"
b1000010000001000110011 q"
b1000010000001000110011 w"
b11100 >
b11100 e
b11100 ""
b11100 Y"
b11100 r"
b11100 x"
b110011 ,
b110011 S
b110011 |"
b110011 K#
b110011 O#
b100100 &
b100100 ?
b100100 }"
b100100 %#
b100000 <
b100000 s"
b100000 {"
b100000 $#
b100000 &#
1!
#100000
0!
#105000
b0 A
b0 f
b0 %"
b0 \"
b0 C
b0 h
b0 &"
b0 X"
b0 E
b0 g
b0 y
b0 '"
b0 1"
b0 ]"
b0 a"
b0 ("
b0 2"
b0 Z"
b0 b"
b0 ,"
b0 W"
b0 ["
b10 .#
b101000100000001000010011 P
b101000100000001000010011 t"
b101000100000001000010011 ~"
b0 `"
b0 _"
b0 {
b0 L"
b0 R"
b0 z
b0 M"
b0 Q"
b0 |
b0 K"
b0 P"
b0 }
b0 J"
b0 O"
b0 -"
b0 I"
b0 N"
b100 ^"
b100000 H
b100000 i"
b100000 l"
b100000 8#
b100000 <#
b10 2
b10 3
b10 W
b10 j"
b10 p"
b10 z"
b10 ##
b10 '#
b10 5#
b10 :#
b10 ;
b10 !"
b10 c"
b10 9#
b10 ?#
b1010 H#
b1010 L#
b101000100000001000010011 ,
b101000100000001000010011 S
b101000100000001000010011 |"
b101000100000001000010011 K#
b101000100000001000010011 O#
b110011 R
b110011 j
b110011 *"
b110011 H"
b110011 q"
b110011 w"
b100000 >
b100000 e
b100000 ""
b100000 Y"
b100000 r"
b100000 x"
b1000010000001000110011 Q
b1000010000001000110011 [
b1000010000001000110011 n
b1000010000001000110011 x
b1000010000001000110011 (#
b11100 =
b11100 `
b11100 h"
b11100 k"
b11100 u
b1 D
b1 ^
b1 )#
b1 /#
b1 s
b1 @
b1 _
b1 g"
b1 n"
b1 t
b1 B
b1 ]
b1 e"
b1 m"
b1 r
b0 I
b0 \
b0 7#
b0 >#
b0 p
b101000 &
b101000 ?
b101000 }"
b101000 %#
b100100 <
b100100 s"
b100100 {"
b100100 $#
b100100 &#
1!
#110000
0!
#115000
b1010 A
b1010 f
b1010 %"
b1010 \"
b10 C
b10 h
b10 &"
b10 X"
b0 +"
b0 >"
b0 E"
b0 V"
1#"
b0 .#
b0 ;
b0 !"
b0 c"
b0 9#
b0 ?#
b10 E
b10 g
b10 y
b10 '"
b10 1"
b10 ]"
b10 a"
b10 ("
b10 2"
b10 Z"
b10 b"
1?"
07"
b1010 ,"
b1010 W"
b1010 ["
b0 ^"
b100100 H
b100100 i"
b100100 l"
b100100 8#
b100100 <#
b0 2
b0 3
b0 W
b0 j"
b0 p"
b0 z"
b0 ##
b0 '#
b0 5#
b0 :#
b1010 `"
b100 _"
b10011 5"
b10011 G"
b101000100000000000000000 {
b101000100000000000000000 L"
b101000100000000000000000 R"
b100000000000001010 z
b100000000000001010 M"
b100000000000001010 Q"
b100 |
b100 K"
b100 P"
b100 }
b100 J"
b100 O"
b1010 -"
b1010 I"
b1010 N"
b1000000001100111 P
b1000000001100111 t"
b1000000001100111 ~"
b1011 H#
b1011 L#
b110011 Q
b110011 [
b110011 n
b110011 x
b110011 (#
b100000 =
b100000 `
b100000 h"
b100000 k"
b100000 u
b0 D
b0 ^
b0 )#
b0 /#
b0 s
b0 @
b0 _
b0 g"
b0 n"
b0 t
b0 B
b0 ]
b0 e"
b0 m"
b0 r
b101000100000001000010011 R
b101000100000001000010011 j
b101000100000001000010011 *"
b101000100000001000010011 H"
b101000100000001000010011 q"
b101000100000001000010011 w"
b100100 >
b100100 e
b100100 ""
b100100 Y"
b100100 r"
b100100 x"
b1000000001100111 ,
b1000000001100111 S
b1000000001100111 |"
b1000000001100111 K#
b1000000001100111 O#
b101100 &
b101100 ?
b101100 }"
b101100 %#
b101000 <
b101000 s"
b101000 {"
b101000 $#
b101000 &#
1!
#120000
0!
