Verilog_Codes/microprocessor.vcd
$date
	Sat Oct 14 13:56:51 2023
$end
$version
	Icarus Verilog
$end
$timescale
	1ps
$end
$scope module microprocessor_tb $end
$var reg 1 ! clk $end
$var reg 1 " enable $end
$var reg 32 # instruction [31:0] $end
$var reg 1 $ rst $end
$scope module u_microprocessor0 $end
$var wire 1 ! clk $end
$var wire 1 " enable $end
$var wire 32 % instruction [31:0] $end
$var wire 1 $ rst $end
$var wire 32 & store_data [31:0] $end
$var wire 1 ' store $end
$var wire 32 ( pc_address [31:0] $end
$var wire 4 ) mask [3:0] $end
$var wire 32 * load_data_out [31:0] $end
$var wire 32 + instruction_data [31:0] $end
$var wire 32 , alu_out_address [31:0] $end
$scope module u_core $end
$var wire 32 - alu_out_address [31:0] $end
$var wire 1 ! clk $end
$var wire 4 . mask_singal [3:0] $end
$var wire 32 / pc_address [31:0] $end
$var wire 1 $ rst $end
$var wire 1 ' write $end
$var wire 32 0 wrap_load_out [31:0] $end
$var wire 32 1 store_data_out [31:0] $end
$var wire 1 2 store $end
$var wire 32 3 rd_wb_data [31:0] $end
$var wire 32 4 pc_address_out [31:0] $end
$var wire 32 5 opb_mux_out [31:0] $end
$var wire 32 6 opa_mux_out [31:0] $end
$var wire 32 7 op_b [31:0] $end
$var wire 32 8 next_sel_address [31:0] $end
$var wire 1 9 next_sel $end
$var wire 2 : mem_to_reg [1:0] $end
$var wire 4 ; mask [3:0] $end
$var wire 32 < load_data_in [31:0] $end
$var wire 1 = load $end
$var wire 32 > instruction [31:0] $end
$var wire 32 ? instruc_data_out [31:0] $end
$var wire 1 @ branch_result $end
$var wire 32 A alu_res_out [31:0] $end
$var wire 4 B alu_control [3:0] $end
$scope module u_decodestage $end
$var wire 1 ! clk $end
$var wire 32 C opb_data [31:0] $end
$var wire 1 $ rst $end
$var wire 32 D uj_immo [31:0] $end
$var wire 32 E u_immo [31:0] $end
$var wire 1 2 store $end
$var wire 32 F sb_immo [31:0] $end
$var wire 32 G s_immo [31:0] $end
$var wire 1 H reg_write $end
$var wire 32 I rd_wb_data [31:0] $end
$var wire 32 J pc_address [31:0] $end
$var wire 1 K operand_b $end
$var wire 1 L operand_a $end
$var wire 32 M opb_mux_out [31:0] $end
$var wire 32 N opa_mux_out [31:0] $end
$var wire 32 O op_b [31:0] $end
$var wire 32 P op_a [31:0] $end
$var wire 1 9 next_sel $end
$var wire 2 Q mem_to_reg [1:0] $end
$var wire 1 = load $end
$var wire 32 R instruction [31:0] $end
$var wire 3 S imm_sel [2:0] $end
$var wire 32 T imm_mux_out [31:0] $end
$var wire 32 U i_immo [31:0] $end
$var wire 1 @ branch_result $end
$var wire 1 V branch $end
$var wire 4 W alu_control [3:0] $end
$scope module u_branch0 $end
$var wire 3 X fun3 [2:0] $end
$var wire 32 Y op_b [31:0] $end
$var wire 32 Z op_a [31:0] $end
$var wire 1 V en $end
$var reg 1 @ result $end
$upscope $end
$scope module u_cu0 $end
$var wire 3 [ fun3 [2:0] $end
$var wire 1 \ fun7 $end
$var wire 7 ] opcode [6:0] $end
$var wire 1 ^ store $end
$var wire 1 H reg_write $end
$var wire 1 _ r_type $end
$var wire 1 K operand_b $end
$var wire 1 L operand_a $end
$var wire 1 9 next_sel $end
$var wire 2 ` mem_to_reg [1:0] $end
$var wire 1 a mem_en $end
$var wire 1 b lui $end
$var wire 1 c load $end
$var wire 1 d jalr $end
$var wire 1 e jal $end
$var wire 3 f imm_sel [2:0] $end
$var wire 1 g i_type $end
$var wire 1 h branch $end
$var wire 1 i auipc $end
$var wire 4 j alu_control [3:0] $end
$var wire 1 2 Store $end
$var wire 1 = Load $end
$var wire 1 V Branch $end
$scope module u_controldec0 $end
$var wire 3 k fun3 [2:0] $end
$var wire 1 \ fun7 $end
$var wire 1 ^ store $end
$var wire 1 _ r_type $end
$var wire 1 b lui $end
$var wire 1 c load $end
$var wire 1 d jalr $end
$var wire 1 e jal $end
$var wire 1 g i_type $end
$var wire 1 h branch $end
$var wire 1 i auipc $end
$var reg 1 V Branch $end
$var reg 1 = Load $end
$var reg 1 2 Store $end
$var reg 4 l alu_control [3:0] $end
$var reg 3 m imm_sel [2:0] $end
$var reg 1 a mem_en $end
$var reg 2 n mem_to_reg [1:0] $end
$var reg 1 9 next_sel $end
$var reg 1 L operand_a $end
$var reg 1 K operand_b $end
$var reg 1 H reg_write $end
$upscope $end
$scope module u_typedec0 $end
$var wire 7 o opcode [6:0] $end
$var reg 1 i auipc $end
$var reg 1 h branch $end
$var reg 1 g i_type $end
$var reg 1 e jal $end
$var reg 1 d jalr $end
$var reg 1 c load $end
$var reg 1 b lui $end
$var reg 1 _ r_type $end
$var reg 1 ^ store $end
$upscope $end
$upscope $end
$scope module u_imm_gen0 $end
$var wire 32 p instr [31:0] $end
$var reg 32 q i_imme [31:0] $end
$var reg 32 r s_imme [31:0] $end
$var reg 32 s sb_imme [31:0] $end
$var reg 32 t u_imme [31:0] $end
$var reg 32 u uj_imme [31:0] $end
$upscope $end
$scope module u_mux0 $end
$var wire 32 v a [31:0] $end
$var wire 32 w b [31:0] $end
$var wire 32 x c [31:0] $end
$var wire 32 y d [31:0] $end
$var wire 32 z e [31:0] $end
$var wire 32 { f [31:0] $end
$var wire 32 | g [31:0] $end
$var wire 32 } h [31:0] $end
$var wire 3 ~ sel [2:0] $end
$var reg 32 !" out [31:0] $end
$upscope $end
$scope module u_mux1 $end
$var wire 1 L sel $end
$var wire 32 "" out [31:0] $end
$var wire 32 #" b [31:0] $end
$var wire 32 $" a [31:0] $end
$upscope $end
$scope module u_mux2 $end
$var wire 32 %" b [31:0] $end
$var wire 1 K sel $end
$var wire 32 &" out [31:0] $end
$var wire 32 '" a [31:0] $end
$upscope $end
$scope module u_regfile0 $end
$var wire 1 ! clk $end
$var wire 1 H en $end
$var wire 5 (" rd [4:0] $end
$var wire 5 )" rs1 [4:0] $end
$var wire 5 *" rs2 [4:0] $end
$var wire 1 $ rst $end
$var wire 32 +" op_b [31:0] $end
$var wire 32 ," op_a [31:0] $end
$var wire 32 -" data [31:0] $end
$var integer 32 ." i [31:0] $end
$upscope $end
$upscope $end
$scope module u_executestage $end
$var wire 32 /" a_i [31:0] $end
$var wire 4 0" alu_control [3:0] $end
$var wire 32 1" b_i [31:0] $end
$var wire 32 2" pc_address [31:0] $end
$var wire 32 3" next_sel_address [31:0] $end
$var wire 32 4" alu_res_out [31:0] $end
$scope module u_adder0 $end
$var wire 32 5" a [31:0] $end
$var reg 32 6" adder_out [31:0] $end
$upscope $end
$scope module u_alu0 $end
$var wire 32 7" a_i [31:0] $end
$var wire 32 8" b_i [31:0] $end
$var wire 4 9" op_i [3:0] $end
$var reg 32 :" res_o [31:0] $end
$upscope $end
$upscope $end
$scope module u_fetchstage $end
$var wire 32 ;" address_in [31:0] $end
$var wire 1 @ branch_reselt $end
$var wire 1 ! clk $end
$var wire 32 <" next_address [31:0] $end
$var wire 1 9 next_sel $end
$var wire 1 $ rst $end
$var wire 32 =" instruction_fetch [31:0] $end
$var wire 32 >" address_out [31:0] $end
$var reg 32 ?" instruction [31:0] $end
$scope module u_pc0 $end
$var wire 32 @" address_in [31:0] $end
$var wire 1 @ branch_reselt $end
$var wire 1 ! clk $end
$var wire 32 A" next_address [31:0] $end
$var wire 1 9 next_sel $end
$var wire 1 $ rst $end
$var reg 32 B" address_out [31:0] $end
$upscope $end
$upscope $end
$scope module u_memorystage $end
$var wire 32 C" alu_out_address [31:0] $end
$var wire 32 D" instruction [31:0] $end
$var wire 1 = load $end
$var wire 32 E" op_b [31:0] $end
$var wire 1 2 store $end
$var wire 32 F" wrap_load_out [31:0] $end
$var wire 32 G" wrap_load_in [31:0] $end
$var wire 32 H" store_data_out [31:0] $end
$var wire 4 I" mask [3:0] $end
$scope module u_wrap_mem0 $end
$var wire 1 = Load $end
$var wire 2 J" byteadd [1:0] $end
$var wire 32 K" data_i [31:0] $end
$var wire 3 L" fun3 [2:0] $end
$var wire 1 2 mem_en $end
$var wire 32 M" wrap_load_in [31:0] $end
$var reg 32 N" data_o [31:0] $end
$var reg 4 O" masking [3:0] $end
$var reg 32 P" wrap_load_out [31:0] $end
$upscope $end
$upscope $end
$scope module u_wbstage $end
$var wire 32 Q" alu_out [31:0] $end
$var wire 32 R" data_mem_out [31:0] $end
$var wire 2 S" mem_to_reg [1:0] $end
$var wire 32 T" next_sel_address [31:0] $end
$var wire 32 U" rd_sel_mux_out [31:0] $end
$scope module u_mux2 $end
$var wire 32 V" a [31:0] $end
$var wire 32 W" b [31:0] $end
$var wire 32 X" c [31:0] $end
$var wire 32 Y" d [31:0] $end
$var wire 2 Z" sel [1:0] $end
$var reg 32 [" out [31:0] $end
$upscope $end
$upscope $end
$upscope $end
$scope module u_data_mem0 $end
$var wire 8 \" address [7:0] $end
$var wire 1 ! clk $end
$var wire 4 ]" mask [3:0] $end
$var wire 1 ' mem_en $end
$var wire 32 ^" storein [31:0] $end
$var reg 32 _" loadout [31:0] $end
$upscope $end
$scope module u_instruction_mem0 $end
$var wire 8 `" address [7:0] $end
$var wire 1 ! clk $end
$var wire 32 a" data_in [31:0] $end
$var wire 1 " enable $end
$var reg 32 b" data_out [31:0] $end
$upscope $end
$upscope $end
$upscope $end
$enddefinitions $end
#0
$dumpvars
bx b"
bx a"
bx `"
bx _"
bx ^"
bx ]"
bx \"
bx ["
bx Z"
bz Y"
bx X"
bx W"
bx V"
bx U"
bx T"
bx S"
bx R"
bx Q"
bx P"
bx O"
bx N"
bx M"
bx L"
bx K"
bx J"
bx I"
bx H"
bx G"
bx F"
bx E"
bx D"
bx C"
bx B"
bx A"
b0 @"
bx ?"
bx >"
bx ="
bx <"
b0 ;"
bx :"
bx 9"
bx 8"
bx 7"
bx 6"
bx 5"
bx 4"
bx 3"
bx 2"
bx 1"
bx 0"
bx /"
bx ."
bx -"
bx ,"
bx +"
bx *"
bx )"
bx ("
bx '"
bx &"
bx %"
bx $"
bx #"
bx ""
bx !"
bx ~
bz }
bz |
bz {
bx z
bx y
bx x
bx w
bx v
bx u
bx t
bx s
bx r
bx q
bx p
bx o
bx n
bx m
bx l
bx k
bx j
xi
xh
xg
bx f
xe
xd
xc
xb
xa
bx `
x_
x^
bx ]
x\
bx [
bx Z
bx Y
bx X
bx W
xV
bx U
bx T
bx S
bx R
bx Q
bx P
bx O
bx N
bx M
xL
xK
bx J
bx I
xH
bx G
bx F
bx E
bx D
bx C
bx B
bx A
x@
bx ?
bx >
x=
bx <
bx ;
bx :
x9
bx 8
bx 7
bx 6
bx 5
bx 4
bx 3
x2
bx 1
bx 0
bx /
bx .
bx -
bx ,
bx +
bx *
bx )
bx (
x'
bx &
bx %
1$
bx #
0"
0!
$end
#5000
b10 J"
b10 3
b10 I
b10 -"
b10 U"
b10 ["
b0 \"
b10 ,
b10 -
b10 A
b10 4"
b10 :"
b10 <"
b10 A"
b10 C"
b10 Q"
b10 V"
b10 5
b10 M
b10 &"
b10 1"
b10 8"
b10 T
b10 !"
b10 %"
b0 6
b0 N
b0 ""
b0 /"
b0 7"
0@
b0 7
b0 C
b0 E"
b0 K"
b0 O
b0 Y
b0 '"
b0 +"
b0 P
b0 Z
b0 $"
b0 ,"
b0 B
b0 W
b0 j
b0 l
b0 0"
b0 9"
b0 S
b0 f
b0 m
b0 ~
0a
09
0V
b0 :
b0 Q
b0 `
b0 n
b0 S"
b0 Z"
0'
02
0=
1K
0L
1H
0b
0d
0e
0i
0h
0c
0^
1g
0_
b0 L"
b0 X
b1010 ("
b10 *"
b0 )"
0\
b0 [
b0 k
b10011 ]
b10011 o
b1000000000000000000000 E
b1000000000000000000000 t
b1000000000000000000000 z
b10 D
b10 u
b10 y
b1010 F
b1010 s
b1010 x
b1010 G
b1010 r
b1010 w
b10 U
b10 q
b10 v
b1000000000010100010011 ?
b1000000000010100010011 R
b1000000000010100010011 p
b1000000000010100010011 ?"
b1000000000010100010011 D"
b1000000000010100010011 +
b1000000000010100010011 >
b1000000000010100010011 ="
b1000000000010100010011 b"
b0 `"
b100 8
b100 3"
b100 6"
b100 T"
b100 X"
b0 (
b0 /
b0 4
b0 J
b0 #"
b0 2"
b0 5"
b0 >"
b0 B"
b100000 ."
1!
0$
#10000
0!
#15000
b1 J"
b1 3
b1 I
b1 -"
b1 U"
b1 ["
b1 ,
b1 -
b1 A
b1 4"
b1 :"
b1 <"
b1 A"
b1 C"
b1 Q"
b1 V"
b1 5
b1 M
b1 &"
b1 1"
b1 8"
b1 T
b1 !"
b1 %"
b10 ("
b1 *"
b100000000000000000000 E
b100000000000000000000 t
b100000000000000000000 z
b100000000000 D
b100000000000 u
b100000000000 y
b10 F
b10 s
b10 x
b10 G
b10 r
b10 w
b1 U
b1 q
b1 v
b100000000000100010011 ?
b100000000000100010011 R
b100000000000100010011 p
b100000000000100010011 ?"
b100000000000100010011 D"
b100000000000100010011 +
b100000000000100010011 >
b100000000000100010011 ="
b100000000000100010011 b"
b1 `"
b1000 8
b1000 3"
b1000 6"
b1000 T"
b1000 X"
b100 (
b100 /
b100 4
b100 J
b100 #"
b100 2"
b100 5"
b100 >"
b100 B"
1!
1$
#20000
0!
#25000
b0 J"
b111 \"
b1100 3
b1100 I
b1100 -"
b1100 U"
b1100 ["
b1000 6
b1000 N
b1000 ""
b1000 /"
b1000 7"
b11100 ,
b11100 -
b11100 A
b11100 4"
b11100 :"
b11100 <"
b11100 A"
b11100 C"
b11100 Q"
b11100 V"
b11 S
b11 f
b11 m
b11 ~
b10 :
b10 Q
b10 `
b10 n
b10 S"
b10 Z"
19
1L
b10100 5
b10100 M
b10100 &"
b10100 1"
b10100 8"
1e
0g
b10100 T
b10100 !"
b10100 %"
b1 ("
b10100 *"
b1101111 ]
b1101111 o
b1010000000000000000000000 E
b1010000000000000000000000 t
b1010000000000000000000000 z
b10100 D
b10100 u
b10100 y
b100000000000 F
b100000000000 s
b100000000000 x
b1 G
b1 r
b1 w
b10100 U
b10100 q
b10100 v
b1010000000000000011101111 ?
b1010000000000000011101111 R
b1010000000000000011101111 p
b1010000000000000011101111 ?"
b1010000000000000011101111 D"
b1010000000000000011101111 +
b1010000000000000011101111 >
b1010000000000000011101111 ="
b1010000000000000011101111 b"
b10 `"
b1100 8
b1100 3"
b1100 6"
b1100 T"
b1100 X"
b1000 (
b1000 /
b1000 4
b1000 J
b1000 #"
b1000 2"
b1000 5"
b1000 >"
b1000 B"
1!
#30000
0!
#35000
b10 J"
09
b0 :
b0 Q
b0 `
b0 n
b0 S"
b0 Z"
0K
0L
b1 5
b1 M
b1 &"
b1 1"
b1 8"
b1 7
b1 C
b1 E"
b1 K"
b1 O
b1 Y
b1 '"
b1 +"
b1 P
b1 Z
b1 $"
b1 ,"
1_
0e
b10000000000000010 T
b10000000000000010 !"
b10000000000000010 %"
b100 ("
b10 *"
b10 )"
b110011 ]
b110011 o
b1000010000000000000000 E
b1000010000000000000000 t
b1000010000000000000000 z
b10000000000000010 D
b10000000000000010 u
b10000000000000010 y
b100 F
b100 s
b100 x
b100 G
b100 r
b100 w
b10 U
b10 q
b10 v
b0 \"
b1000010000001000110011 ?
b1000010000001000110011 R
b1000010000001000110011 p
b1000010000001000110011 ?"
b1000010000001000110011 D"
b10 ,
b10 -
b10 A
b10 4"
b10 :"
b10 <"
b10 A"
b10 C"
b10 Q"
b10 V"
b1000010000001000110011 +
b1000010000001000110011 >
b1000010000001000110011 ="
b1000010000001000110011 b"
b10 3
b10 I
b10 -"
b10 U"
b10 ["
b1 6
b1 N
b1 ""
b1 /"
b1 7"
b111 `"
b100000 8
b100000 3"
b100000 6"
b100000 T"
b100000 X"
b11100 (
b11100 /
b11100 4
b11100 J
b11100 #"
b11100 2"
b11100 5"
b11100 >"
b11100 B"
1!
#40000
0!
#45000
b0 J"
b1100 3
b1100 I
b1100 -"
b1100 U"
b1100 ["
b11 \"
b1100 ,
b1100 -
b1100 A
b1100 4"
b1100 :"
b1100 <"
b1100 A"
b1100 C"
b1100 Q"
b1100 V"
b0 5
b0 M
b0 &"
b0 1"
b0 8"
b1100 6
b1100 N
b1100 ""
b1100 /"
b1100 7"
b0 S
b0 f
b0 m
b0 ~
19
1K
0H
b0 7
b0 C
b0 E"
b0 K"
b0 O
b0 Y
b0 '"
b0 +"
b1100 P
b1100 Z
b1100 $"
b1100 ,"
1d
0_
b0 T
b0 !"
b0 %"
b0 ("
b0 *"
b1 )"
b1100111 ]
b1100111 o
b1000000000000000 E
b1000000000000000 t
b1000000000000000 z
b1000000000000000 D
b1000000000000000 u
b1000000000000000 y
b0 F
b0 s
b0 x
b0 G
b0 r
b0 w
b0 U
b0 q
b0 v
b1000000001100111 ?
b1000000001100111 R
b1000000001100111 p
b1000000001100111 ?"
b1000000001100111 D"
b1000000001100111 +
b1000000001100111 >
b1000000001100111 ="
b1000000001100111 b"
b1000 `"
b100100 8
b100100 3"
b100100 6"
b100100 T"
b100100 X"
b100000 (
b100000 /
b100000 4
b100000 J
b100000 #"
b100000 2"
b100000 5"
b100000 >"
b100000 B"
1!
#50000
0!
#55000
b1 J"
b1001 3
b1001 I
b1001 -"
b1001 U"
b1001 ["
b10 \"
b1001 ,
b1001 -
b1001 A
b1001 4"
b1001 :"
b1001 <"
b1001 A"
b1001 C"
b1001 Q"
b1001 V"
b1 6
b1 N
b1 ""
b1 /"
b1 7"
09
1H
b1000 5
b1000 M
b1000 &"
b1000 1"
b1000 8"
b1 P
b1 Z
b1 $"
b1 ,"
1g
0d
b1000 T
b1000 !"
b1000 %"
b11 ("
b1000 *"
b10 )"
b10011 ]
b10011 o
b100000010000000000000000 E
b100000010000000000000000 t
b100000010000000000000000 z
b10000000000001000 D
b10000000000001000 u
b10000000000001000 y
b100000000010 F
b100000000010 s
b100000000010 x
b11 G
b11 r
b11 w
b1000 U
b1000 q
b1000 v
b100000010000000110010011 ?
b100000010000000110010011 R
b100000010000000110010011 p
b100000010000000110010011 ?"
b100000010000000110010011 D"
b100000010000000110010011 +
b100000010000000110010011 >
b100000010000000110010011 ="
b100000010000000110010011 b"
b11 `"
b10000 8
b10000 3"
b10000 6"
b10000 T"
b10000 X"
b1100 (
b1100 /
b1100 4
b1100 J
b1100 #"
b1100 2"
b1100 5"
b1100 >"
b1100 B"
1!
#60000
0!
#65000
b0 J"
b1000000000000 3
b1000000000000 I
b1000000000000 -"
b1000000000000 U"
b1000000000000 ["
b0 \"
b0 6
b0 N
b0 ""
b0 /"
b0 7"
b1000000000000 ,
b1000000000000 -
b1000000000000 A
b1000000000000 4"
b1000000000000 :"
b1000000000000 <"
b1000000000000 A"
b1000000000000 C"
b1000000000000 Q"
b1000000000000 V"
b1000000000000 5
b1000000000000 M
b1000000000000 &"
b1000000000000 1"
b1000000000000 8"
b0 P
b0 Z
b0 $"
b0 ,"
b1111 B
b1111 W
b1111 j
b1111 l
b1111 0"
b1111 9"
b100 S
b100 f
b100 m
b100 ~
0H
1b
0g
b1000000000000 T
b1000000000000 !"
b1000000000000 %"
b1 L"
b1 X
b101 ("
b0 *"
b0 )"
b1 [
b1 k
b110111 ]
b110111 o
b1000000000000 E
b1000000000000 t
b1000000000000 z
b1000000000000 D
b1000000000000 u
b1000000000000 y
b100000000100 F
b100000000100 s
b100000000100 x
b101 G
b101 r
b101 w
b0 U
b0 q
b0 v
b1001010110111 ?
b1001010110111 R
b1001010110111 p
b1001010110111 ?"
b1001010110111 D"
b1001010110111 +
b1001010110111 >
b1001010110111 ="
b1001010110111 b"
b100 `"
b10100 8
b10100 3"
b10100 6"
b10100 T"
b10100 X"
b10000 (
b10000 /
b10000 4
b10000 J
b10000 #"
b10000 2"
b10000 5"
b10000 >"
b10000 B"
1!
#70000
0!
#75000
b11000000000000000000010100 3
b11000000000000000000010100 I
b11000000000000000000010100 -"
b11000000000000000000010100 U"
b11000000000000000000010100 ["
b101 \"
b11000000000000000000010100 ,
b11000000000000000000010100 -
b11000000000000000000010100 A
b11000000000000000000010100 4"
b11000000000000000000010100 :"
b11000000000000000000010100 <"
b11000000000000000000010100 A"
b11000000000000000000010100 C"
b11000000000000000000010100 Q"
b11000000000000000000010100 V"
b10100 6
b10100 N
b10100 ""
b10100 /"
b10100 7"
b11000000000000000000000000 5
b11000000000000000000000000 M
b11000000000000000000000000 &"
b11000000000000000000000000 1"
b11000000000000000000000000 8"
b0 B
b0 W
b0 j
b0 l
b0 0"
b0 9"
1L
1i
0b
b11000000000000000000000000 T
b11000000000000000000000000 !"
b11000000000000000000000000 %"
b0 L"
b0 X
b110 ("
b10000 *"
b0 [
b0 k
b10111 ]
b10111 o
b11000000000000000000000000 E
b11000000000000000000000000 t
b11000000000000000000000000 z
b110000 D
b110000 u
b110000 y
b100110 F
b100110 s
b100110 x
b100110 G
b100110 r
b100110 w
b110000 U
b110000 q
b110000 v
b11000000000000001100010111 ?
b11000000000000001100010111 R
b11000000000000001100010111 p
b11000000000000001100010111 ?"
b11000000000000001100010111 D"
b11000000000000001100010111 +
b11000000000000001100010111 >
b11000000000000001100010111 ="
b11000000000000001100010111 b"
b101 `"
b11000 8
b11000 3"
b11000 6"
b11000 T"
b11000 X"
b10100 (
b10100 /
b10100 4
b10100 J
b10100 #"
b10100 2"
b10100 5"
b10100 >"
b10100 B"
1!
#80000
0!
#85000
b1100 5
b1100 M
b1100 &"
b1100 1"
b1100 8"
1@
b10 7
b10 C
b10 E"
b10 K"
b10 O
b10 Y
b10 '"
b10 +"
b1001 P
b1001 Z
b1001 $"
b1001 ,"
b10 S
b10 f
b10 m
b10 ~
1V
1h
0i
b1100 T
b1100 !"
b1100 %"
b1 L"
b1 X
b1100 ("
b1010 *"
b11 )"
b1 [
b1 k
b1100011 ]
b1100011 o
b101000011001000000000000 E
b101000011001000000000000 t
b101000011001000000000000 z
b11001000000001010 D
b11001000000001010 u
b11001000000001010 y
b1100 F
b1100 s
b1100 x
b1100 G
b1100 r
b1100 w
b1010 U
b1010 q
b1010 v
b100100 3
b100100 I
b100100 -"
b100100 U"
b100100 ["
b1001 \"
b101000011001011001100011 ?
b101000011001011001100011 R
b101000011001011001100011 p
b101000011001011001100011 ?"
b101000011001011001100011 D"
b100100 ,
b100100 -
b100100 A
b100100 4"
b100100 :"
b100100 <"
b100100 A"
b100100 C"
b100100 Q"
b100100 V"
b101000011001011001100011 +
b101000011001011001100011 >
b101000011001011001100011 ="
b101000011001011001100011 b"
b11000 6
b11000 N
b11000 ""
b11000 /"
b11000 7"
b110 `"
b11100 8
b11100 3"
b11100 6"
b11100 T"
b11100 X"
b11000 (
b11000 /
b11000 4
b11000 J
b11000 #"
b11000 2"
b11000 5"
b11000 >"
b11000 B"
1!
#90000
0!
#95000
b110 5
b110 M
b110 &"
b110 1"
b110 8"
b1001 &
b1001 1
b1001 H"
b1001 N"
b1001 ^"
b1111 )
b1111 .
b1111 ]"
b1111 ;
b1111 I"
b1111 O"
0@
b1001 7
b1001 C
b1001 E"
b1001 K"
b1001 O
b1001 Y
b1001 '"
b1001 +"
b10 P
b10 Z
b10 $"
b10 ,"
b1 S
b1 f
b1 m
b1 ~
1a
0V
1'
12
0L
1^
0h
b110 T
b110 !"
b110 %"
b10 L"
b10 X
b110 ("
b11 *"
b1010 )"
b10 [
b10 k
b100011 ]
b100011 o
b1101010010000000000000 E
b1101010010000000000000 t
b1101010010000000000000 z
b1010010100000000010 D
b1010010100000000010 u
b1010010100000000010 y
b110 F
b110 s
b110 x
b110 G
b110 r
b110 w
b11 U
b11 q
b11 v
b1000 3
b1000 I
b1000 -"
b1000 U"
b1000 ["
b10 \"
b1101010010001100100011 ?
b1101010010001100100011 R
b1101010010001100100011 p
b1101010010001100100011 ?"
b1101010010001100100011 D"
b1000 ,
b1000 -
b1000 A
b1000 4"
b1000 :"
b1000 <"
b1000 A"
b1000 C"
b1000 Q"
b1000 V"
b1101010010001100100011 +
b1101010010001100100011 >
b1101010010001100100011 ="
b1101010010001100100011 b"
b10 6
b10 N
b10 ""
b10 /"
b10 7"
b1001 `"
b101000 8
b101000 3"
b101000 6"
b101000 T"
b101000 X"
b100100 (
b100100 /
b100100 4
b100100 J
b100100 #"
b100100 2"
b100100 5"
b100100 >"
b100100 B"
1!
#100000
0!
#105000
b0 J"
b1001 3
b1001 I
b1001 -"
b1001 U"
b1001 ["
b1000 ,
b1000 -
b1000 A
b1000 4"
b1000 :"
b1000 <"
b1000 A"
b1000 C"
b1000 Q"
b1000 V"
b1001 0
b1001 F"
b1001 P"
b1001 R"
b1001 W"
b0 S
b0 f
b0 m
b0 ~
0a
b1 :
b1 Q
b1 `
b1 n
b1 S"
b1 Z"
0'
02
1=
1H
b110 5
b110 M
b110 &"
b110 1"
b110 8"
b0 7
b0 C
b0 E"
b0 K"
b0 O
b0 Y
b0 '"
b0 +"
1c
0^
b110 T
b110 !"
b110 %"
b111 ("
b110 *"
b11 ]
b11 o
b11001010010000000000000 E
b11001010010000000000000 t
b11001010010000000000000 z
b1010010000000000110 D
b1010010000000000110 u
b1010010000000000110 y
b100000000110 F
b100000000110 s
b100000000110 x
b111 G
b111 r
b111 w
b110 U
b110 q
b110 v
b11001010010001110000011 ?
b11001010010001110000011 R
b11001010010001110000011 p
b11001010010001110000011 ?"
b11001010010001110000011 D"
b11001010010001110000011 +
b11001010010001110000011 >
b11001010010001110000011 ="
b11001010010001110000011 b"
b1111 )
b1111 .
b1111 ]"
b1111 ;
b1111 I"
b1111 O"
b1010 `"
b101100 8
b101100 3"
b101100 6"
b101100 T"
b101100 X"
b1001 *
b1001 <
b1001 G"
b1001 M"
b1001 _"
b101000 (
b101000 /
b101000 4
b101000 J
b101000 #"
b101000 2"
b101000 5"
b101000 >"
b101000 B"
1!
#110000
0!
#115000
bx *
bx <
bx G"
bx M"
bx _"
b0 J"
b0 \"
b0 ,
b0 -
b0 A
b0 4"
b0 :"
b0 <"
b0 A"
b0 C"
b0 Q"
b0 V"
b110000 3
b110000 I
b110000 -"
b110000 U"
b110000 ["
b101100 6
b101100 N
b101100 ""
b101100 /"
b101100 7"
b11111111111111111111111111010100 5
b11111111111111111111111111010100 M
b11111111111111111111111111010100 &"
b11111111111111111111111111010100 1"
b11111111111111111111111111010100 8"
b0 P
b0 Z
b0 $"
b0 ,"
b11 S
b11 f
b11 m
b11 ~
19
b10 :
b10 Q
b10 `
b10 n
b10 S"
b10 Z"
0=
1L
1e
0c
b11111111111111111111111111010100 T
b11111111111111111111111111010100 !"
b11111111111111111111111111010100 %"
b111 L"
b111 X
b1 ("
b10101 *"
b11111 )"
1\
b111 [
b111 k
b1101111 ]
b1101111 o
b11111101010111111111000000000000 E
b11111101010111111111000000000000 t
b11111101010111111111000000000000 z
b11111111111111111111111111010100 D
b11111111111111111111111111010100 u
b11111111111111111111111111010100 y
b11111111111111111111111111000000 F
b11111111111111111111111111000000 s
b11111111111111111111111111000000 x
b11111111111111111111111111000001 G
b11111111111111111111111111000001 r
b11111111111111111111111111000001 w
b11111111111111111111111111010101 U
b11111111111111111111111111010101 q
b11111111111111111111111111010101 v
b11111101010111111111000011101111 ?
b11111101010111111111000011101111 R
b11111101010111111111000011101111 p
b11111101010111111111000011101111 ?"
b11111101010111111111000011101111 D"
b11111101010111111111000011101111 +
b11111101010111111111000011101111 >
b11111101010111111111000011101111 ="
b11111101010111111111000011101111 b"
b1011 `"
b110000 8
b110000 3"
b110000 6"
b110000 T"
b110000 X"
b101100 (
b101100 /
b101100 4
b101100 J
b101100 #"
b101100 2"
b101100 5"
b101100 >"
b101100 B"
1!
#120000
0!
#125000
b10 J"
b10 5
b10 M
b10 &"
b10 1"
b10 8"
b1 7
b1 C
b1 E"
b1 K"
b1 O
b1 Y
b1 '"
b1 +"
b0 S
b0 f
b0 m
b0 ~
09
b0 :
b0 Q
b0 `
b0 n
b0 S"
b0 Z"
0L
1g
0e
b10 T
b10 !"
b10 %"
b0 L"
b0 X
b1010 ("
b10 *"
b0 )"
0\
b0 [
b0 k
b10011 ]
b10011 o
b1000000000000000000000 E
b1000000000000000000000 t
b1000000000000000000000 z
b10 D
b10 u
b10 y
b1010 F
b1010 s
b1010 x
b1010 G
b1010 r
b1010 w
b10 U
b10 q
b10 v
b0 \"
b1000000000010100010011 ?
b1000000000010100010011 R
b1000000000010100010011 p
b1000000000010100010011 ?"
b1000000000010100010011 D"
b10 ,
b10 -
b10 A
b10 4"
b10 :"
b10 <"
b10 A"
b10 C"
b10 Q"
b10 V"
b1000000000010100010011 +
b1000000000010100010011 >
b1000000000010100010011 ="
b1000000000010100010011 b"
b10 3
b10 I
b10 -"
b10 U"
b10 ["
b0 6
b0 N
b0 ""
b0 /"
b0 7"
b0 `"
b100 8
b100 3"
b100 6"
b100 T"
b100 X"
b0 (
b0 /
b0 4
b0 J
b0 #"
b0 2"
b0 5"
b0 >"
b0 B"
1!
#130000
0!
